{
    "version": "0.4",
    "title": "Single Post",
    "type": "single-post",
    "metadata": {
        "template_type": "single-post",
        "include_in_zip": "1",
        "elementor_pro_required": "1",
        "elementor_library_type": "single-post",
        "elementor_pro_conditions": [
            "include\/singular\/post"
        ],
        "additional_template_information": [
            "This is a \"Single Post\" template for Elementor Pro.",
            "This template will display on: Posts."
        ],
        "wp_page_template": "default"
    },
    "content": [
        {
            "id": "6cb595ac",
            "settings": {
                "background_background": "classic",
                "padding": {
                    "unit": "%",
                    "top": "9",
                    "right": "0",
                    "bottom": "5",
                    "left": "0",
                    "isLinked": false
                },
                "background_xpos": {
                    "unit": "%",
                    "size": 0,
                    "sizes": []
                },
                "background_ypos": {
                    "unit": "%",
                    "size": 72,
                    "sizes": []
                },
                "background_repeat": "no-repeat",
                "background_size": "cover",
                "background_bg_width": {
                    "unit": "%",
                    "size": 42,
                    "sizes": []
                },
                "background_motion_fx_mouseTrack_effect": "yes",
                "background_motion_fx_mouseTrack_speed": {
                    "unit": "px",
                    "size": 0.2,
                    "sizes": []
                },
                "padding_tablet": {
                    "unit": "px",
                    "top": "140",
                    "right": "0",
                    "bottom": "100",
                    "left": "0",
                    "isLinked": false
                },
                "padding_mobile": {
                    "unit": "px",
                    "top": "150",
                    "right": "0",
                    "bottom": "90",
                    "left": "0",
                    "isLinked": false
                },
                "content_width": {
                    "unit": "px",
                    "size": 1000,
                    "sizes": []
                },
                "background_image": {
                    "url": "https:\/\/templatekit.jegtheme.com\/safir\/wp-content\/uploads\/sites\/51\/2021\/03\/set-of-earrings.jpg",
                    "id": 773
                },
                "background_overlay_background": "classic",
                "background_overlay_color": "#000000",
                "margin": {
                    "unit": "px",
                    "top": "-100",
                    "right": 0,
                    "bottom": "0",
                    "left": 0,
                    "isLinked": false
                },
                "motion_fx_translateY_speed": {
                    "unit": "px",
                    "size": 10,
                    "sizes": []
                },
                "motion_fx_translateY_affectedRange": {
                    "unit": "%",
                    "size": "",
                    "sizes": {
                        "start": 53,
                        "end": 53
                    }
                },
                "background_position": "center center"
            },
            "elements": [
                {
                    "id": "721fa691",
                    "settings": {
                        "_column_size": 100,
                        "_inline_size": null,
                        "content_position": "center",
                        "margin": {
                            "unit": "px",
                            "top": "0",
                            "right": "50",
                            "bottom": "0",
                            "left": "50",
                            "isLinked": false
                        },
                        "margin_tablet": {
                            "unit": "px",
                            "top": "0",
                            "right": "10",
                            "bottom": "0",
                            "left": "10",
                            "isLinked": false
                        },
                        "margin_mobile": {
                            "unit": "px",
                            "top": "0",
                            "right": "0",
                            "bottom": "0",
                            "left": "5",
                            "isLinked": false
                        }
                    },
                    "elements": [
                        {
                            "id": "5af4ff1c",
                            "settings": {
                                "__dynamic__": {
                                    "title": "[elementor-tag id=\"\" name=\"post-title\" settings=\"%7B%22before%22%3A%22%22%2C%22after%22%3A%22%22%2C%22fallback%22%3A%22%22%7D\"]"
                                },
                                "title": "Add Your Heading Text Here",
                                "title_color": "#FFFFFF",
                                "align": "center",
                                "_margin": {
                                    "unit": "px",
                                    "top": "0",
                                    "right": "0",
                                    "bottom": "10",
                                    "left": "0",
                                    "isLinked": false
                                },
                                "__globals__": {
                                    "typography_typography": "globals\/typography?id=caabc45"
                                }
                            },
                            "elements": [],
                            "isInner": false,
                            "widgetType": "theme-post-title",
                            "elType": "widget"
                        },
                        {
                            "id": "7c9f741",
                            "settings": {
                                "icon_list": [
                                    {
                                        "type": "author",
                                        "selected_icon": {
                                            "value": "icon icon-user",
                                            "library": "ekiticons"
                                        },
                                        "_id": "4e8ec4b",
                                        "custom_date_format": "F j, Y",
                                        "custom_time_format": "g:i a",
                                        "show_icon": "custom"
                                    },
                                    {
                                        "selected_icon": {
                                            "value": "icon icon-calendar3",
                                            "library": "ekiticons"
                                        },
                                        "_id": "44bf137",
                                        "custom_date_format": "F j, Y",
                                        "custom_time_format": "g:i a",
                                        "show_icon": "custom"
                                    },
                                    {
                                        "type": "time",
                                        "selected_icon": {
                                            "value": "icon icon-clock2",
                                            "library": "ekiticons"
                                        },
                                        "_id": "45371c9",
                                        "custom_date_format": "F j, Y",
                                        "custom_time_format": "g:i a",
                                        "show_icon": "custom"
                                    },
                                    {
                                        "type": "comments",
                                        "selected_icon": {
                                            "value": "icon icon-comment2",
                                            "library": "ekiticons"
                                        },
                                        "_id": "14625c2",
                                        "custom_date_format": "F j, Y",
                                        "custom_time_format": "g:i a",
                                        "show_icon": "custom"
                                    }
                                ],
                                "space_between": {
                                    "unit": "px",
                                    "size": 26,
                                    "sizes": []
                                },
                                "icon_color": "#5476C8",
                                "icon_size": {
                                    "unit": "px",
                                    "size": 16,
                                    "sizes": []
                                },
                                "text_color": "#FFFFFF",
                                "icon_align": "center",
                                "text_indent": {
                                    "unit": "px",
                                    "size": 7,
                                    "sizes": []
                                },
                                "__globals__": {
                                    "text_color": "",
                                    "icon_color": "",
                                    "icon_typography_typography": "globals\/typography?id=e540851"
                                }
                            },
                            "elements": [],
                            "isInner": false,
                            "widgetType": "post-info",
                            "elType": "widget"
                        }
                    ],
                    "isInner": false,
                    "elType": "column"
                }
            ],
            "isInner": false,
            "elType": "section"
        },
        {
            "id": "38cc9dd3",
            "settings": {
                "content_width": {
                    "unit": "px",
                    "size": 1290,
                    "sizes": []
                },
                "structure": "20",
                "background_background": "classic",
                "background_color": "#FFFFFF",
                "background_color_stop": {
                    "unit": "%",
                    "size": 40,
                    "sizes": []
                },
                "background_color_b": "#FFFFFF",
                "background_color_b_stop": {
                    "unit": "%",
                    "size": 0,
                    "sizes": []
                },
                "background_gradient_angle": {
                    "unit": "deg",
                    "size": 90,
                    "sizes": []
                },
                "padding": {
                    "unit": "px",
                    "top": "100",
                    "right": "0",
                    "bottom": "100",
                    "left": "0",
                    "isLinked": false
                },
                "border_border": "solid",
                "border_width": {
                    "unit": "px",
                    "top": "1",
                    "right": "0",
                    "bottom": "0",
                    "left": "0",
                    "isLinked": false
                },
                "border_color": "#6F6F6F21",
                "margin": {
                    "unit": "px",
                    "top": "0",
                    "right": 0,
                    "bottom": "0",
                    "left": 0,
                    "isLinked": false
                },
                "margin_tablet": {
                    "unit": "px",
                    "top": "",
                    "right": 0,
                    "bottom": "",
                    "left": 0,
                    "isLinked": true
                },
                "margin_mobile": {
                    "unit": "px",
                    "top": "",
                    "right": 0,
                    "bottom": "",
                    "left": 0,
                    "isLinked": true
                },
                "reverse_order_tablet": "reverse-tablet",
                "reverse_order_mobile": "reverse-mobile",
                "padding_tablet": {
                    "unit": "px",
                    "top": "80",
                    "right": "0",
                    "bottom": "80",
                    "left": "0",
                    "isLinked": false
                },
                "padding_mobile": {
                    "unit": "px",
                    "top": "50",
                    "right": "0",
                    "bottom": "50",
                    "left": "0",
                    "isLinked": false
                }
            },
            "elements": [
                {
                    "id": "7d8593be",
                    "settings": {
                        "_column_size": 50,
                        "_inline_size": 29.95,
                        "margin": {
                            "unit": "px",
                            "top": "10",
                            "right": "0",
                            "bottom": "10",
                            "left": "10",
                            "isLinked": false
                        },
                        "_inline_size_tablet": 100,
                        "margin_tablet": {
                            "unit": "px",
                            "top": "0",
                            "right": "0",
                            "bottom": "0",
                            "left": "0",
                            "isLinked": false
                        },
                        "border_border": "solid",
                        "border_width": {
                            "unit": "px",
                            "top": "0",
                            "right": "1",
                            "bottom": "0",
                            "left": "0",
                            "isLinked": false
                        },
                        "border_color": "#ECECEC9E",
                        "border_radius": {
                            "unit": "px",
                            "top": "0",
                            "right": "0",
                            "bottom": "0",
                            "left": "0",
                            "isLinked": false
                        },
                        "padding": {
                            "unit": "px",
                            "top": "0",
                            "right": "40",
                            "bottom": "0",
                            "left": "0",
                            "isLinked": false
                        },
                        "padding_tablet": {
                            "unit": "px",
                            "top": "0",
                            "right": "20",
                            "bottom": "0",
                            "left": "20",
                            "isLinked": false
                        },
                        "padding_mobile": {
                            "unit": "px",
                            "top": "0",
                            "right": "15",
                            "bottom": "0",
                            "left": "15",
                            "isLinked": false
                        },
                        "__globals__": {
                            "border_color": ""
                        }
                    },
                    "elements": [
                        {
                            "id": "63d95f87",
                            "settings": {
                                "title": "Search",
                                "_margin": {
                                    "unit": "px",
                                    "top": "0",
                                    "right": "0",
                                    "bottom": "0",
                                    "left": "0",
                                    "isLinked": false
                                },
                                "align": "left",
                                "__globals__": {
                                    "title_color": "",
                                    "typography_typography": "globals\/typography?id=a834e79"
                                },
                                "title_color": "#293365"
                            },
                            "elements": [],
                            "isInner": false,
                            "widgetType": "heading",
                            "elType": "widget"
                        },
                        {
                            "id": "4efd5123",
                            "settings": {
                                "placeholder": "Enter Keywords",
                                "button_text": "Search",
                                "input_text_color": "#0D1023",
                                "border_radius": {
                                    "unit": "px",
                                    "size": 0,
                                    "sizes": []
                                },
                                "__globals__": {
                                    "input_text_color": "",
                                    "input_background_color": "",
                                    "input_typography_typography": "globals\/typography?id=text",
                                    "input_border_color": "",
                                    "input_border_color_focus": "",
                                    "input_text_color_focus": "",
                                    "button_background_color": "",
                                    "button_background_color_hover": ""
                                },
                                "icon_size_minimal": {
                                    "unit": "px",
                                    "size": 16,
                                    "sizes": []
                                },
                                "input_background_color": "#02010100",
                                "input_border_color": "#ECECEC9E",
                                "input_text_color_focus": "#0D1023",
                                "input_border_color_focus": "#293365",
                                "button_background_color": "#293365",
                                "button_background_color_hover": "#5476C8"
                            },
                            "elements": [],
                            "isInner": false,
                            "widgetType": "search-form",
                            "elType": "widget"
                        },
                        {
                            "id": "5736d8fa",
                            "settings": {
                                "text": "Divider",
                                "color": "#ECECEC9E"
                            },
                            "elements": [],
                            "isInner": false,
                            "widgetType": "divider",
                            "elType": "widget"
                        },
                        {
                            "id": "60eba0da",
                            "settings": {
                                "title": "Filter By Categories",
                                "title_color": "#293365",
                                "__globals__": {
                                    "title_color": "",
                                    "typography_typography": "globals\/typography?id=a834e79"
                                },
                                "header_size": "h5",
                                "align": "left",
                                "_margin": {
                                    "unit": "px",
                                    "top": "0",
                                    "right": "0",
                                    "bottom": "0",
                                    "left": "0",
                                    "isLinked": false
                                }
                            },
                            "elements": [],
                            "isInner": false,
                            "widgetType": "heading",
                            "elType": "widget"
                        },
                        {
                            "id": "10837ccf",
                            "settings": {
                                "icon_list": [
                                    {
                                        "_id": "2f3245b",
                                        "link": "29",
                                        "icons": {
                                            "value": "fas fa-angle-right",
                                            "library": "fa-solid"
                                        }
                                    },
                                    {
                                        "_id": "def15ad",
                                        "link": "33",
                                        "icons": {
                                            "value": "fas fa-angle-right",
                                            "library": "fa-solid"
                                        }
                                    },
                                    {
                                        "_id": "f23f59a",
                                        "icons": {
                                            "value": "fas fa-angle-right",
                                            "library": "fa-solid"
                                        },
                                        "link": "30"
                                    },
                                    {
                                        "_id": "4cc9ae1",
                                        "link": "32",
                                        "icons": {
                                            "value": "fas fa-angle-right",
                                            "library": "fa-solid"
                                        }
                                    },
                                    {
                                        "_id": "caa92a6",
                                        "icons": {
                                            "value": "fas fa-angle-right",
                                            "library": "fa-solid"
                                        },
                                        "link": "31"
                                    }
                                ],
                                "space_between": {
                                    "unit": "px",
                                    "size": 10,
                                    "sizes": []
                                },
                                "icon_color": "#5476C8",
                                "icon_size": {
                                    "unit": "px",
                                    "size": 18,
                                    "sizes": []
                                },
                                "text_color": "#0D1023",
                                "text_indent": {
                                    "unit": "px",
                                    "size": 10,
                                    "sizes": []
                                },
                                "__globals__": {
                                    "icon_color": "",
                                    "text_color": "",
                                    "icon_typography_typography": "globals\/typography?id=text"
                                },
                                "icon_size_tablet": {
                                    "unit": "px",
                                    "size": 17,
                                    "sizes": []
                                },
                                "_margin": {
                                    "unit": "px",
                                    "top": "0",
                                    "right": "0",
                                    "bottom": "0",
                                    "left": "-8",
                                    "isLinked": false
                                }
                            },
                            "elements": [],
                            "isInner": false,
                            "widgetType": "elementskit-category-list",
                            "elType": "widget"
                        },
                        {
                            "id": "52ad2790",
                            "settings": {
                                "text": "Divider",
                                "color": "#ECECEC9E"
                            },
                            "elements": [],
                            "isInner": false,
                            "widgetType": "divider",
                            "elType": "widget"
                        },
                        {
                            "id": "524200e1",
                            "settings": {
                                "title": "Recent Post",
                                "title_color": "#293365",
                                "__globals__": {
                                    "title_color": "",
                                    "typography_typography": "globals\/typography?id=a834e79"
                                },
                                "header_size": "h5",
                                "align": "left",
                                "_margin": {
                                    "unit": "px",
                                    "top": "0",
                                    "right": "0",
                                    "bottom": "0",
                                    "left": "0",
                                    "isLinked": false
                                }
                            },
                            "elements": [],
                            "isInner": false,
                            "widgetType": "heading",
                            "elType": "widget"
                        },
                        {
                            "id": "47933de6",
                            "settings": {
                                "sg_content_image_size_imagesize_size": "full",
                                "sg_content_excerpt_more": "...",
                                "sg_content_readmore_enable": "",
                                "sg_content_readmore_text": "Read More",
                                "sg_content_comment_enable": "",
                                "sg_content_meta_author_enable": "",
                                "sg_content_meta_author_by_text": "by",
                                "sg_content_meta_date_format_custom": "F j, Y",
                                "pagination_loadmore_text": "Load More",
                                "pagination_loading_text": "Loading...",
                                "st_post_item_margin_responsive": {
                                    "unit": "px",
                                    "top": "0",
                                    "right": "0",
                                    "bottom": "0",
                                    "left": "0",
                                    "isLinked": false
                                },
                                "st_category_position": "left",
                                "st_category_color_responsive": "#5476C8",
                                "st_title_margin_responsive": {
                                    "unit": "px",
                                    "top": "20",
                                    "right": "0",
                                    "bottom": "10",
                                    "left": "0",
                                    "isLinked": false
                                },
                                "st_excerpt_color_responsive": "#0D1023",
                                "st_meta_color_responsive": "#CCCCCC",
                                "__globals__": {
                                    "st_category_typography_content_typography_typography": "globals\/typography?id=285bd57",
                                    "st_category_color_responsive": "",
                                    "st_title_normal_typography_content_typography_typography": "globals\/typography?id=text",
                                    "st_excerpt_color_responsive": "",
                                    "st_excerpt_typography_content_typography_typography": "globals\/typography?id=text",
                                    "st_meta_typography_content_typography_typography": "globals\/typography?id=accent",
                                    "st_meta_color_responsive": ""
                                },
                                "number_post": {
                                    "unit": "px",
                                    "size": 5,
                                    "sizes": []
                                },
                                "st_post_item_gap_responsive_tablet": {
                                    "unit": "px",
                                    "size": 20,
                                    "sizes": []
                                },
                                "st_post_item_padding_responsive_tablet": {
                                    "unit": "px",
                                    "top": "0",
                                    "right": "0",
                                    "bottom": "20",
                                    "left": "0",
                                    "isLinked": false
                                },
                                "st_post_item_margin_responsive_tablet": {
                                    "unit": "px",
                                    "top": "0",
                                    "right": "0",
                                    "bottom": "0",
                                    "left": "0",
                                    "isLinked": false
                                },
                                "sg_content_column_responsive_tablet": {
                                    "unit": "px",
                                    "size": 3,
                                    "sizes": []
                                },
                                "sg_content_column_responsive_mobile": {
                                    "unit": "px",
                                    "size": 2,
                                    "sizes": []
                                },
                                "sg_content_category_enable": "",
                                "sg_content_excerpt_enable": "",
                                "st_wrapper_padding_responsive": {
                                    "unit": "px",
                                    "top": "0",
                                    "right": "0",
                                    "bottom": "0",
                                    "left": "0",
                                    "isLinked": false
                                },
                                "st_wrapper_padding_responsive_tablet": {
                                    "unit": "px",
                                    "top": "0",
                                    "right": "0",
                                    "bottom": "0",
                                    "left": "0",
                                    "isLinked": true
                                },
                                "st_wrapper_padding_responsive_mobile": {
                                    "unit": "px",
                                    "top": "0",
                                    "right": "0",
                                    "bottom": "0",
                                    "left": "0",
                                    "isLinked": true
                                },
                                "st_wrapper_margin_responsive": {
                                    "unit": "px",
                                    "top": "0",
                                    "right": "0",
                                    "bottom": "0",
                                    "left": "0",
                                    "isLinked": false
                                },
                                "st_wrapper_margin_responsive_tablet": {
                                    "unit": "px",
                                    "top": "0",
                                    "right": "0",
                                    "bottom": "0",
                                    "left": "0",
                                    "isLinked": true
                                },
                                "st_post_item_gap_responsive_mobile": {
                                    "unit": "px",
                                    "size": 15,
                                    "sizes": []
                                },
                                "st_post_item_padding_responsive": {
                                    "unit": "px",
                                    "top": "0",
                                    "right": "0",
                                    "bottom": "0",
                                    "left": "0",
                                    "isLinked": false
                                },
                                "st_post_item_padding_responsive_mobile": {
                                    "unit": "px",
                                    "top": "0",
                                    "right": "0",
                                    "bottom": "0",
                                    "left": "0",
                                    "isLinked": false
                                },
                                "st_thumbnail_padding_responsive": {
                                    "unit": "px",
                                    "top": "0",
                                    "right": "0",
                                    "bottom": "0",
                                    "left": "0",
                                    "isLinked": false
                                },
                                "st_thumbnail_margin_responsive": {
                                    "unit": "px",
                                    "top": "0",
                                    "right": "0",
                                    "bottom": "0",
                                    "left": "0",
                                    "isLinked": false
                                },
                                "st_thumbnail_width_responsive_mobile": {
                                    "unit": "px",
                                    "size": 0,
                                    "sizes": []
                                },
                                "st_thumbnail_container_height_responsive": {
                                    "unit": "px",
                                    "size": 100,
                                    "sizes": []
                                },
                                "st_thumbnail_container_height_responsive_tablet": {
                                    "unit": "px",
                                    "size": 150,
                                    "sizes": []
                                },
                                "st_thumbnail_container_height_responsive_mobile": {
                                    "unit": "px",
                                    "size": 100,
                                    "sizes": []
                                },
                                "st_content_padding_responsive": {
                                    "unit": "px",
                                    "top": "0",
                                    "right": "0",
                                    "bottom": "0",
                                    "left": "10",
                                    "isLinked": false
                                },
                                "st_content_padding_responsive_tablet": {
                                    "unit": "px",
                                    "top": "0",
                                    "right": "10",
                                    "bottom": "0",
                                    "left": "0",
                                    "isLinked": false
                                },
                                "st_content_padding_responsive_mobile": {
                                    "unit": "px",
                                    "top": "0",
                                    "right": "10",
                                    "bottom": "0",
                                    "left": "0",
                                    "isLinked": false
                                },
                                "st_content_margin_responsive": {
                                    "unit": "px",
                                    "top": "0",
                                    "right": "0",
                                    "bottom": "0",
                                    "left": "0",
                                    "isLinked": false
                                },
                                "st_meta_margin_responsive": {
                                    "unit": "px",
                                    "top": "0",
                                    "right": "0",
                                    "bottom": "0",
                                    "left": "0",
                                    "isLinked": false
                                },
                                "st_meta_bottom_alignment_responsive_mobile": "flex-start"
                            },
                            "elements": [],
                            "isInner": false,
                            "widgetType": "jkit_post_block",
                            "elType": "widget"
                        },
                        {
                            "id": "5a38724b",
                            "settings": {
                                "background_background": "classic",
                                "background_overlay_background": "classic",
                                "padding": {
                                    "unit": "px",
                                    "top": "134",
                                    "right": "0",
                                    "bottom": "134",
                                    "left": "0",
                                    "isLinked": false
                                },
                                "__globals__": {
                                    "background_color": "",
                                    "background_overlay_color": ""
                                },
                                "margin": {
                                    "unit": "px",
                                    "top": "",
                                    "right": 0,
                                    "bottom": "",
                                    "left": 0,
                                    "isLinked": true
                                },
                                "background_color": "#0D1023",
                                "background_size": "cover",
                                "background_overlay_size": "cover",
                                "background_overlay_opacity": {
                                    "unit": "px",
                                    "size": 0.4,
                                    "sizes": []
                                },
                                "background_overlay_image": {
                                    "url": "https:\/\/templatekit.jegtheme.com\/safir\/wp-content\/uploads\/sites\/51\/2021\/03\/jewellery-sets.jpg",
                                    "id": 324
                                },
                                "padding_mobile": {
                                    "unit": "px",
                                    "top": "100",
                                    "right": "0",
                                    "bottom": "100",
                                    "left": "0",
                                    "isLinked": false
                                }
                            },
                            "elements": [
                                {
                                    "id": "2aa2efb0",
                                    "settings": {
                                        "_column_size": 100,
                                        "_inline_size": null,
                                        "align": "center",
                                        "background_background": "classic",
                                        "background_overlay_background": "classic",
                                        "background_overlay_size": "cover",
                                        "padding": {
                                            "unit": "px",
                                            "top": "0",
                                            "right": "0",
                                            "bottom": "0",
                                            "left": "0",
                                            "isLinked": false
                                        }
                                    },
                                    "elements": [
                                        {
                                            "id": "6ae5791",
                                            "settings": {
                                                "editor": "<p>Top Sale Diamond<\/p>",
                                                "align": "center",
                                                "text_color": "#FFFFFF",
                                                "_margin": {
                                                    "unit": "px",
                                                    "top": "0",
                                                    "right": "0",
                                                    "bottom": "-15",
                                                    "left": "0",
                                                    "isLinked": false
                                                },
                                                "__globals__": {
                                                    "typography_typography": "globals\/typography?id=e540851"
                                                }
                                            },
                                            "elements": [],
                                            "isInner": false,
                                            "widgetType": "text-editor",
                                            "elType": "widget"
                                        },
                                        {
                                            "id": "78537df9",
                                            "settings": {
                                                "title": "Deal Of The Day",
                                                "align": "center",
                                                "title_color": "#FFFFFF",
                                                "_margin": {
                                                    "unit": "px",
                                                    "top": "-10",
                                                    "right": "0",
                                                    "bottom": "20",
                                                    "left": "0",
                                                    "isLinked": false
                                                },
                                                "__globals__": {
                                                    "title_color": "",
                                                    "typography_typography": "globals\/typography?id=ef78bd1"
                                                }
                                            },
                                            "elements": [],
                                            "isInner": false,
                                            "widgetType": "heading",
                                            "elType": "widget"
                                        },
                                        {
                                            "id": "567f78df",
                                            "settings": {
                                                "marker": "underline",
                                                "before_text": "",
                                                "highlighted_text": "35%",
                                                "rotating_text": "20%!",
                                                "stroke_width": {
                                                    "unit": "px",
                                                    "size": 7,
                                                    "sizes": []
                                                },
                                                "__globals__": {
                                                    "marker_color": "",
                                                    "title_color": "",
                                                    "words_color": "",
                                                    "title_typography_typography": "",
                                                    "words_typography_typography": "globals\/typography?id=a0cc689"
                                                },
                                                "tag": "h2",
                                                "animation_type": "flip",
                                                "marker_color": "#FFFFFF",
                                                "title_color": "#5476C8",
                                                "title_typography_typography": "custom",
                                                "title_typography_font_family": "Signika",
                                                "title_typography_font_size": {
                                                    "unit": "px",
                                                    "size": 80,
                                                    "sizes": []
                                                },
                                                "title_typography_font_weight": "400",
                                                "words_color": "#FFFFFF",
                                                "rotate_iteration_delay": 4500,
                                                "highlight_iteration_delay": 5000,
                                                "_margin": {
                                                    "unit": "px",
                                                    "top": "-25",
                                                    "right": "0",
                                                    "bottom": "0",
                                                    "left": "0",
                                                    "isLinked": false
                                                },
                                                "highlight_animation_duration": 1500
                                            },
                                            "elements": [],
                                            "isInner": false,
                                            "widgetType": "animated-headline",
                                            "elType": "widget"
                                        },
                                        {
                                            "id": "4694c53f",
                                            "settings": {
                                                "editor": "<p>Off for all items!<\/p>",
                                                "align": "center",
                                                "text_color": "#FFFFFF"
                                            },
                                            "elements": [],
                                            "isInner": false,
                                            "widgetType": "text-editor",
                                            "elType": "widget"
                                        },
                                        {
                                            "id": "1548ee3",
                                            "settings": {
                                                "text": "shop now",
                                                "align": "center",
                                                "button_text_color": "#FFFFFF",
                                                "background_color": "#0D102300",
                                                "hover_color": "#5476C8",
                                                "button_background_hover_color": "#FFFFFF",
                                                "border_border": "solid",
                                                "border_width": {
                                                    "unit": "px",
                                                    "top": "1",
                                                    "right": "1",
                                                    "bottom": "1",
                                                    "left": "1",
                                                    "isLinked": true
                                                },
                                                "border_color": "#FFFFFF",
                                                "text_padding": {
                                                    "unit": "px",
                                                    "top": "20",
                                                    "right": "60",
                                                    "bottom": "20",
                                                    "left": "60",
                                                    "isLinked": false
                                                },
                                                "_margin": {
                                                    "unit": "px",
                                                    "top": "15",
                                                    "right": "0",
                                                    "bottom": "0",
                                                    "left": "0",
                                                    "isLinked": false
                                                },
                                                "__globals__": {
                                                    "button_text_color": "",
                                                    "border_color": "",
                                                    "button_background_hover_color": "",
                                                    "button_hover_border_color": "",
                                                    "hover_color": "",
                                                    "typography_typography": "globals\/typography?id=c85d6e7"
                                                }
                                            },
                                            "elements": [],
                                            "isInner": false,
                                            "widgetType": "button",
                                            "elType": "widget"
                                        }
                                    ],
                                    "isInner": true,
                                    "elType": "column"
                                }
                            ],
                            "isInner": true,
                            "elType": "section"
                        }
                    ],
                    "isInner": false,
                    "elType": "column"
                },
                {
                    "id": "6fd534da",
                    "settings": {
                        "_column_size": 50,
                        "_inline_size": 70.05,
                        "margin": {
                            "unit": "px",
                            "top": "0",
                            "right": "0",
                            "bottom": "0",
                            "left": "30",
                            "isLinked": false
                        },
                        "_inline_size_tablet": 100,
                        "margin_tablet": {
                            "unit": "px",
                            "top": "0",
                            "right": "10",
                            "bottom": "20",
                            "left": "10",
                            "isLinked": false
                        },
                        "margin_mobile": {
                            "unit": "px",
                            "top": "0",
                            "right": "5",
                            "bottom": "20",
                            "left": "5",
                            "isLinked": false
                        }
                    },
                    "elements": [
                        {
                            "id": "3be9e42b",
                            "settings": {
                                "__dynamic__": {
                                    "image": "[elementor-tag id=\"\" name=\"post-featured-image\" settings=\"%7B%22fallback%22%3A%7B%22url%22%3A%22%22%2C%22id%22%3A%22%22%7D%7D\"]"
                                },
                                "image": {
                                    "url": "https:\/\/templatekit.jegtheme.com\/deva\/wp-content\/plugins\/elementor\/assets\/images\/placeholder.png",
                                    "id": ""
                                },
                                "width": {
                                    "unit": "%",
                                    "size": 100,
                                    "sizes": []
                                },
                                "space": {
                                    "unit": "%",
                                    "size": 100,
                                    "sizes": []
                                }
                            },
                            "elements": [],
                            "isInner": false,
                            "widgetType": "theme-post-featured-image",
                            "elType": "widget"
                        },
                        {
                            "id": "324f6e30",
                            "settings": {
                                "title": "9 Quicks Tips That Will Change Bangles Sitting ",
                                "title_color": "#293365",
                                "__globals__": {
                                    "title_color": "",
                                    "typography_typography": "globals\/typography?id=ef78bd1"
                                }
                            },
                            "elements": [],
                            "isInner": false,
                            "widgetType": "heading",
                            "elType": "widget"
                        },
                        {
                            "id": "2bb42a5",
                            "settings": {
                                "text_color": "#0D1023",
                                "_margin": {
                                    "unit": "px",
                                    "top": "0",
                                    "right": "0",
                                    "bottom": "-15",
                                    "left": "0",
                                    "isLinked": false
                                },
                                "__globals__": {
                                    "text_color": "",
                                    "typography_typography": "globals\/typography?id=text"
                                }
                            },
                            "elements": [],
                            "isInner": false,
                            "widgetType": "theme-post-content",
                            "elType": "widget"
                        },
                        {
                            "id": "17c3e946",
                            "settings": {
                                "editor": "<p>Quisque consectetur convallis ex, quis tincidunt ligula placerat et. Nam quis leo sed tortor blandit commodo. Quisque ultrices, justo non convallis accumsan, ante magna ornare sapien, quis venenatis diam libero nec orci. Aenean semper interdum odio in dictum. Nunc sed augue lorem. Duis nec sollicitudin orci. Vivamus lectus metus, efficitur non arcu id, pulvinar sollicitudin ipsum. Nunc sed consectetur risus. Morbi tincidunt lorem non iaculis bibendum.\u00a0<\/p>",
                                "text_color": "#0D1023",
                                "_margin": {
                                    "unit": "px",
                                    "top": "0",
                                    "right": "0",
                                    "bottom": "-15",
                                    "left": "0",
                                    "isLinked": false
                                },
                                "__globals__": {
                                    "text_color": "",
                                    "typography_typography": "globals\/typography?id=text"
                                }
                            },
                            "elements": [],
                            "isInner": false,
                            "widgetType": "text-editor",
                            "elType": "widget"
                        },
                        {
                            "id": "47bbe333",
                            "settings": {
                                "editor": "<p>Proin ullamcorper pretium orci. Donec nec scelerisque leo. Nam massa dolor, imperdiet nec consequat a, congue id sem. Maecenas malesuada faucibus finibus. Donec vitae libero porttitor, laoreet sapien a, ultrices leo. Duis dictum vestibulum ante vitae ullamcorper. Phasellus ullamcorper, odio vitae eleifend ultricies, lectus orci congue magna.<\/p>",
                                "text_color": "#0D1023",
                                "_margin": {
                                    "unit": "px",
                                    "top": "0",
                                    "right": "0",
                                    "bottom": "-15",
                                    "left": "0",
                                    "isLinked": false
                                },
                                "__globals__": {
                                    "text_color": "",
                                    "typography_typography": "globals\/typography?id=text"
                                }
                            },
                            "elements": [],
                            "isInner": false,
                            "widgetType": "text-editor",
                            "elType": "widget"
                        },
                        {
                            "id": "6dbcb11b",
                            "settings": {
                                "text": "Divider",
                                "color": "#ECECEC9E",
                                "gap": {
                                    "unit": "px",
                                    "size": 2,
                                    "sizes": []
                                }
                            },
                            "elements": [],
                            "isInner": false,
                            "widgetType": "divider",
                            "elType": "widget"
                        },
                        {
                            "id": "2bbb2c02",
                            "settings": {
                                "selected_icon": {
                                    "value": "icon icon-quote1",
                                    "library": "ekiticons"
                                },
                                "align": "left",
                                "primary_color": "#EFF4FF",
                                "_margin": {
                                    "unit": "px",
                                    "top": "0",
                                    "right": "0",
                                    "bottom": "-40",
                                    "left": "0",
                                    "isLinked": false
                                }
                            },
                            "elements": [],
                            "isInner": false,
                            "widgetType": "icon",
                            "elType": "widget"
                        },
                        {
                            "id": "4039e3a0",
                            "settings": {
                                "editor": "<p><i>Proin ullamcorper pretium orci. Donec nec scelerisque leo. Nam massa dolor, imperdiet nec consequata congue id sem. Maecenas malesuada faucibus finibus. Donec vitae libero porttitor, laoreet sapien a, ultrices leo. Duis dictum vestibulum ante vitae ullamcorper. Phasellus ullamcorper, odio vitae eleifend ultricies magna.<\/i><\/p>",
                                "text_color": "#0D1023",
                                "_margin": {
                                    "unit": "px",
                                    "top": "0",
                                    "right": "0",
                                    "bottom": "-15",
                                    "left": "0",
                                    "isLinked": false
                                },
                                "__globals__": {
                                    "text_color": "",
                                    "typography_typography": "globals\/typography?id=e540851"
                                }
                            },
                            "elements": [],
                            "isInner": false,
                            "widgetType": "text-editor",
                            "elType": "widget"
                        },
                        {
                            "id": "2bf44c47",
                            "settings": {
                                "title": "Victoria Hansen",
                                "title_color": "#293365",
                                "__globals__": {
                                    "title_color": "",
                                    "typography_typography": "globals\/typography?id=a834e79"
                                },
                                "header_size": "h5",
                                "align": "left",
                                "_margin": {
                                    "unit": "px",
                                    "top": "0",
                                    "right": "0",
                                    "bottom": "-20",
                                    "left": "0",
                                    "isLinked": false
                                }
                            },
                            "elements": [],
                            "isInner": false,
                            "widgetType": "heading",
                            "elType": "widget"
                        },
                        {
                            "id": "1625c15a",
                            "settings": {
                                "editor": "<p>Jewelry Manager<\/p>",
                                "text_color": "#0D1023",
                                "__globals__": {
                                    "text_color": "",
                                    "typography_typography": "globals\/typography?id=accent"
                                }
                            },
                            "elements": [],
                            "isInner": false,
                            "widgetType": "text-editor",
                            "elType": "widget"
                        },
                        {
                            "id": "f94d472",
                            "settings": {
                                "text": "Divider",
                                "color": "#ECECEC9E",
                                "gap": {
                                    "unit": "px",
                                    "size": 2,
                                    "sizes": []
                                }
                            },
                            "elements": [],
                            "isInner": false,
                            "widgetType": "divider",
                            "elType": "widget"
                        },
                        {
                            "id": "22d5d29c",
                            "settings": {
                                "editor": "<p>Quisque consectetur convallis ex, quis tincidunt ligula placerat et. Nam quis leo sed tortor blandit commodo. Quisque ultrices, justo non convallis accumsan, ante magna ornare sapien, quisvene natis diam libero nec orci. Aenean semper interdum odio in dictum. Nunc sed augue lorem. Duis nec sollicitudin orci. Vivamus lectus metus, efficitur non arcu id, pulvinar sollicitudin ipsum. Nunc sed consectetur risus. Morbi tincidunt lorem non iaculis bibendum.\u00a0<\/p>",
                                "text_color": "#0D1023",
                                "__globals__": {
                                    "text_color": "",
                                    "typography_typography": "globals\/typography?id=text"
                                }
                            },
                            "elements": [],
                            "isInner": false,
                            "widgetType": "text-editor",
                            "elType": "widget"
                        },
                        {
                            "id": "328628d9",
                            "settings": {
                                "prev_label": "Previous",
                                "next_label": "Next",
                                "arrow": "fa fa-chevron-left",
                                "show_title": "",
                                "show_borders": "",
                                "in_same_term": [],
                                "post_taxonomy": "post_format",
                                "label_color": "#0D1023",
                                "arrow_color": "#5476C8",
                                "arrow_size": {
                                    "unit": "px",
                                    "size": 15,
                                    "sizes": []
                                },
                                "arrow_padding": {
                                    "unit": "px",
                                    "size": 10,
                                    "sizes": []
                                },
                                "__globals__": {
                                    "label_color": "",
                                    "label_hover_color": "",
                                    "arrow_hover_color": "",
                                    "arrow_color": "",
                                    "_border_color": "",
                                    "label_typography_typography": "globals\/typography?id=text"
                                },
                                "_border_width": {
                                    "unit": "px",
                                    "top": "0",
                                    "right": "0",
                                    "bottom": "1",
                                    "left": "0",
                                    "isLinked": false
                                },
                                "_border_color": "#131313",
                                "_element_custom_width": {
                                    "unit": "px",
                                    "size": 146,
                                    "sizes": []
                                },
                                "arrow_size_tablet": {
                                    "unit": "px",
                                    "size": 15,
                                    "sizes": []
                                },
                                "arrow_size_mobile": {
                                    "unit": "px",
                                    "size": 14,
                                    "sizes": []
                                }
                            },
                            "elements": [],
                            "isInner": false,
                            "widgetType": "post-navigation",
                            "elType": "widget"
                        },
                        {
                            "id": "10d85aa0",
                            "settings": {
                                "text": "Divider",
                                "color": "#6F6F6F21",
                                "gap": {
                                    "unit": "px",
                                    "size": 5,
                                    "sizes": []
                                }
                            },
                            "elements": [],
                            "isInner": false,
                            "widgetType": "divider",
                            "elType": "widget"
                        },
                        {
                            "id": "9d07564",
                            "settings": {
                                "structure": "20"
                            },
                            "elements": [
                                {
                                    "id": "64be6eab",
                                    "settings": {
                                        "_column_size": 50,
                                        "_inline_size": 68.558,
                                        "padding": {
                                            "unit": "px",
                                            "top": "0",
                                            "right": "0",
                                            "bottom": "0",
                                            "left": "0",
                                            "isLinked": false
                                        },
                                        "margin_mobile": {
                                            "unit": "px",
                                            "top": "0",
                                            "right": "0",
                                            "bottom": "20",
                                            "left": "0",
                                            "isLinked": false
                                        },
                                        "_inline_size_tablet": 63
                                    },
                                    "elements": [
                                        {
                                            "id": "5310014",
                                            "settings": {
                                                "title": "tags :",
                                                "title_color": "#293365",
                                                "__globals__": {
                                                    "title_color": "",
                                                    "typography_typography": "globals\/typography?id=b2a25f3"
                                                },
                                                "header_size": "h5"
                                            },
                                            "elements": [],
                                            "isInner": false,
                                            "widgetType": "heading",
                                            "elType": "widget"
                                        },
                                        {
                                            "id": "29bc047e",
                                            "settings": {
                                                "icon_list": [
                                                    {
                                                        "type": "terms",
                                                        "selected_icon": {
                                                            "value": "far fa-user-circle",
                                                            "library": "fa-regular"
                                                        },
                                                        "_id": "f3f99fb",
                                                        "custom_date_format": "F j, Y",
                                                        "custom_time_format": "g:i a",
                                                        "taxonomy": "post_tag",
                                                        "show_icon": "none"
                                                    }
                                                ],
                                                "text_color": "#0D1023",
                                                "__globals__": {
                                                    "text_color": "",
                                                    "icon_typography_typography": "globals\/typography?id=text"
                                                }
                                            },
                                            "elements": [],
                                            "isInner": false,
                                            "widgetType": "post-info",
                                            "elType": "widget"
                                        }
                                    ],
                                    "isInner": true,
                                    "elType": "column"
                                },
                                {
                                    "id": "5159494f",
                                    "settings": {
                                        "_column_size": 50,
                                        "_inline_size": 31.442,
                                        "padding": {
                                            "unit": "px",
                                            "top": "0",
                                            "right": "0",
                                            "bottom": "0",
                                            "left": "0",
                                            "isLinked": false
                                        },
                                        "margin_mobile": {
                                            "unit": "px",
                                            "top": "0",
                                            "right": "0",
                                            "bottom": "10",
                                            "left": "0",
                                            "isLinked": false
                                        },
                                        "_inline_size_tablet": 37
                                    },
                                    "elements": [
                                        {
                                            "id": "2ecb91e",
                                            "settings": {
                                                "title": "socials :",
                                                "title_color": "#293365",
                                                "__globals__": {
                                                    "title_color": "",
                                                    "typography_typography": "globals\/typography?id=b2a25f3"
                                                },
                                                "header_size": "h5"
                                            },
                                            "elements": [],
                                            "isInner": false,
                                            "widgetType": "heading",
                                            "elType": "widget"
                                        },
                                        {
                                            "id": "1b988b59",
                                            "settings": {
                                                "ekit_socialshare_list_align": "left",
                                                "ekit_socialshare_add_icons": [
                                                    {
                                                        "ekit_socialshare_icon_hover_bg_color": "#3B5999",
                                                        "_id": "07de04a",
                                                        "ekit_socialshare_icon_color": "#293365",
                                                        "ekit_socialshare_border_border": "solid",
                                                        "ekit_socialshare_border_width": {
                                                            "unit": "px",
                                                            "top": "1",
                                                            "right": "1",
                                                            "bottom": "1",
                                                            "left": "1",
                                                            "isLinked": true
                                                        },
                                                        "ekit_socialshare_border_color": "#5476C8",
                                                        "ekit_socialshare_icon_hover_color": "#FFFFFF",
                                                        "ekit_socialshare_border_hover_border": "solid",
                                                        "ekit_socialshare_border_hover_width": {
                                                            "unit": "px",
                                                            "top": "1",
                                                            "right": "1",
                                                            "bottom": "1",
                                                            "left": "1",
                                                            "isLinked": true
                                                        },
                                                        "ekit_socialshare_border_hover_color": "#3B5999",
                                                        "__globals__": {
                                                            "ekit_socialshare_icon_color": "",
                                                            "ekit_socialshare_border_color": ""
                                                        }
                                                    },
                                                    {
                                                        "ekit_socialshare_icon_hover_bg_color": "#55ACEE",
                                                        "ekit_socialshare_icon_color": "#293365",
                                                        "ekit_socialshare_border_border": "solid",
                                                        "ekit_socialshare_border_width": {
                                                            "unit": "px",
                                                            "top": "1",
                                                            "right": "1",
                                                            "bottom": "1",
                                                            "left": "1",
                                                            "isLinked": true
                                                        },
                                                        "ekit_socialshare_border_color": "#5476C8",
                                                        "ekit_socialshare_icon_hover_color": "#FFFFFF",
                                                        "ekit_socialshare_border_hover_border": "solid",
                                                        "ekit_socialshare_border_hover_width": {
                                                            "unit": "px",
                                                            "top": "1",
                                                            "right": "1",
                                                            "bottom": "1",
                                                            "left": "1",
                                                            "isLinked": true
                                                        },
                                                        "ekit_socialshare_border_hover_color": "#55ACEE",
                                                        "__globals__": {
                                                            "ekit_socialshare_icon_color": "",
                                                            "ekit_socialshare_border_color": ""
                                                        },
                                                        "ekit_socialshare_icons": {
                                                            "value": "icon icon-twitter",
                                                            "library": "ekiticons"
                                                        },
                                                        "ekit_socialshare_label_text": "twitter",
                                                        "_id": "50aad56"
                                                    },
                                                    {
                                                        "ekit_socialshare_icon_hover_bg_color": "#0077B5",
                                                        "ekit_socialshare_icon_color": "#293365",
                                                        "ekit_socialshare_border_border": "solid",
                                                        "ekit_socialshare_border_width": {
                                                            "unit": "px",
                                                            "top": "1",
                                                            "right": "1",
                                                            "bottom": "1",
                                                            "left": "1",
                                                            "isLinked": true
                                                        },
                                                        "ekit_socialshare_border_color": "#5476C8",
                                                        "ekit_socialshare_icon_hover_color": "#FFFFFF",
                                                        "ekit_socialshare_border_hover_border": "solid",
                                                        "ekit_socialshare_border_hover_width": {
                                                            "unit": "px",
                                                            "top": "1",
                                                            "right": "1",
                                                            "bottom": "1",
                                                            "left": "1",
                                                            "isLinked": true
                                                        },
                                                        "ekit_socialshare_border_hover_color": "#0077B5",
                                                        "__globals__": {
                                                            "ekit_socialshare_icon_color": "",
                                                            "ekit_socialshare_border_color": ""
                                                        },
                                                        "ekit_socialshare_icons": {
                                                            "value": "fab fa-linkedin-in",
                                                            "library": "fa-brands"
                                                        },
                                                        "ekit_socialshare_label_text": "linkedin",
                                                        "_id": "24f51a1"
                                                    },
                                                    {
                                                        "ekit_socialshare_icon_hover_bg_color": "#CD201F",
                                                        "ekit_socialshare_icon_color": "#293365",
                                                        "ekit_socialshare_border_border": "solid",
                                                        "ekit_socialshare_border_width": {
                                                            "unit": "px",
                                                            "top": "1",
                                                            "right": "1",
                                                            "bottom": "1",
                                                            "left": "1",
                                                            "isLinked": true
                                                        },
                                                        "ekit_socialshare_border_color": "#5476C8",
                                                        "ekit_socialshare_icon_hover_color": "#FFFFFF",
                                                        "ekit_socialshare_border_hover_border": "solid",
                                                        "ekit_socialshare_border_hover_width": {
                                                            "unit": "px",
                                                            "top": "1",
                                                            "right": "1",
                                                            "bottom": "1",
                                                            "left": "1",
                                                            "isLinked": true
                                                        },
                                                        "ekit_socialshare_border_hover_color": "#CD201F",
                                                        "__globals__": {
                                                            "ekit_socialshare_icon_color": "",
                                                            "ekit_socialshare_border_color": ""
                                                        },
                                                        "ekit_socialshare_icons": {
                                                            "value": "fab fa-youtube",
                                                            "library": "fa-brands"
                                                        },
                                                        "ekit_socialshare_label_text": "twitter",
                                                        "_id": "d358e4d"
                                                    },
                                                    {
                                                        "ekit_socialshare_icon_hover_bg_color": "#E4405F",
                                                        "ekit_socialshare_icon_color": "#293365",
                                                        "ekit_socialshare_border_border": "solid",
                                                        "ekit_socialshare_border_width": {
                                                            "unit": "px",
                                                            "top": "1",
                                                            "right": "1",
                                                            "bottom": "1",
                                                            "left": "1",
                                                            "isLinked": true
                                                        },
                                                        "ekit_socialshare_border_color": "#5476C8",
                                                        "ekit_socialshare_icon_hover_color": "#FFFFFF",
                                                        "ekit_socialshare_border_hover_border": "solid",
                                                        "ekit_socialshare_border_hover_width": {
                                                            "unit": "px",
                                                            "top": "1",
                                                            "right": "1",
                                                            "bottom": "1",
                                                            "left": "1",
                                                            "isLinked": true
                                                        },
                                                        "ekit_socialshare_border_hover_color": "#E4405F",
                                                        "__globals__": {
                                                            "ekit_socialshare_icon_color": "",
                                                            "ekit_socialshare_border_color": ""
                                                        },
                                                        "ekit_socialshare_icons": {
                                                            "value": "icon icon-instagram-1",
                                                            "library": "ekiticons"
                                                        },
                                                        "ekit_socialshare_label_text": "twitter",
                                                        "_id": "116809c"
                                                    }
                                                ],
                                                "ekit_socialshare_list_border_radius": {
                                                    "unit": "%",
                                                    "top": "",
                                                    "right": "",
                                                    "bottom": "",
                                                    "left": "",
                                                    "isLinked": true
                                                },
                                                "ekit_socialshare_list_line_height": {
                                                    "unit": "px",
                                                    "size": 0,
                                                    "sizes": []
                                                },
                                                "ekit_socialshare_list_icon_size": {
                                                    "unit": "px",
                                                    "size": 15,
                                                    "sizes": []
                                                },
                                                "ekit_socialshare_list_margin": {
                                                    "unit": "px",
                                                    "top": "0",
                                                    "right": "10",
                                                    "bottom": "0",
                                                    "left": "0",
                                                    "isLinked": false
                                                },
                                                "ekit_socialshare_list_padding": {
                                                    "unit": "px",
                                                    "top": "11",
                                                    "right": "0",
                                                    "bottom": "0",
                                                    "left": "0",
                                                    "isLinked": false
                                                },
                                                "ekit_socialshare_list_icon_size_tablet": {
                                                    "unit": "px",
                                                    "size": 15,
                                                    "sizes": []
                                                },
                                                "ekit_socialshare_list_icon_size_mobile": {
                                                    "unit": "px",
                                                    "size": 14,
                                                    "sizes": []
                                                },
                                                "ekit_socialshare_list_typography_typography": "custom",
                                                "ekit_socialshare_list_typography_font_family": "Lato",
                                                "ekit_socialshare_list_typography_font_size_tablet": {
                                                    "unit": "px",
                                                    "size": 15,
                                                    "sizes": []
                                                },
                                                "ekit_socialshare_list_typography_font_size_mobile": {
                                                    "unit": "px",
                                                    "size": 14,
                                                    "sizes": []
                                                },
                                                "ekit_socialshare_list_typography_font_weight": "300"
                                            },
                                            "elements": [],
                                            "isInner": false,
                                            "widgetType": "elementskit-social-share",
                                            "elType": "widget"
                                        }
                                    ],
                                    "isInner": true,
                                    "elType": "column"
                                }
                            ],
                            "isInner": true,
                            "elType": "section"
                        },
                        {
                            "id": "189f6958",
                            "settings": {
                                "text": "Divider",
                                "color": "#6F6F6F21"
                            },
                            "elements": [],
                            "isInner": false,
                            "widgetType": "divider",
                            "elType": "widget"
                        },
                        {
                            "id": "5a659e48",
                            "settings": {
                                "_skin": "theme_comments"
                            },
                            "elements": [],
                            "isInner": false,
                            "widgetType": "post-comments",
                            "elType": "widget"
                        }
                    ],
                    "isInner": false,
                    "elType": "column"
                }
            ],
            "isInner": false,
            "elType": "section"
        }
    ],
    "page_settings": {
        "eael_ext_toc_title": "Table of Contents"
    }
}